{
  "id": "textended",
  "name": "textended",
  "title": "TinyMCE Extended CSS",
  "description": "Allows for adding new custom classes to the TinyMCE Editor",
  "author": "Geekswordsman (@Geekswordsman#3085)",
  "authors": [
    {
      "name": "Geekswordsman",
      "discord": "@Geekswordsman#3085",
      "flags": {}
    }
  ],
  "version": "1.2.2",
  "minimumCoreVersion": "0.8.9",
  "compatibleCoreVersion": "10",
  "compatibility": {
    "minimum": "0.8.9",
    "verified": "10",
    "maximum": "10"
  },
  "styles": [
    "css/textended.css"
  ],
  "esmodules": [
    "module/main.mjs"
  ],
  "languages": [
    {
      "lang": "en",
      "name": "English",
      "path": "languages/en.json",
      "flags": {}
    }
  ],
  "url": "https://gitlab.com/geekswordsman/textended",
  "manifest": "https://gitlab.com/api/v4/projects/geekswordsman%2Ftextended/packages/generic/release/latest/module.json",
  "download": "https://gitlab.com/geekswordsman/textended/-/archive/v1.2.2/textended-v1.2.2.zip",
  "license": "https://gitlab.com/geekswordsman/textended/-/raw/main/LICENSE",
  "readme": "https://gitlab.com/geekswordsman/textended/-/raw/main/README.MD",
  "bugs": "https://gitlab.com/geekswordsman/textended/-/issues",
  "changelog": "https://gitlab.com/geekswordsman/textended/-/raw/main/CHANGELOG.md"
}